<svg xmlns="http://www.w3.org/2000/svg" width="38" height="68" fill="none" viewBox="0 0 38 68">
    <path fill="#71758B" d="M19.002.969h-.003C8.788.969.509 9.248.509 19.459c0 5.106 2.07 9.728 5.418 13.075 2.596 2.599 4.242 5.776 4.968 9.113h16.212c.725-3.338 2.371-6.515 4.966-9.113 3.349-3.347 5.417-7.969 5.417-13.076 0-10.21-8.278-18.49-18.489-18.49zm-5.23 23.72l-3.923 3.924c-5.055-5.055-5.055-13.25 0-18.307l3.923 3.923c-2.89 2.89-2.89 7.572 0 10.46z"/>
    <path fill="#71758B" d="M5.687 9.105H16.041V29.814H5.687z"/>
    <path fill="#fff" d="M6.1 7.246c-1.453 1.503-2.314 3.015-1.913 3.383.381.368 1.883-.545 3.316-2.028 1.434-1.483 2.314-3.016 1.913-3.383-.38-.368-1.863.545-3.316 2.028z"/>
    <path fill="#959AA5" d="M10.893 41.645h16.21l.033 7.396H10.864l.03-7.396z"/>
    <path fill="#E0E0E0" d="M10.864 45.344h16.272v4.178c0 2.111-.534 4.188-1.55 6.037-2.856 5.192-10.316 5.192-13.171 0-1.017-1.85-1.55-3.926-1.55-6.036v-4.18z"/>
    <path fill="#BDBDBD" d="M27.136 45.343l-12.218 1.1-4.055.764v-1.864h16.273z"/>
    <path fill="#606776" d="M27.135 49.042l-16.27-.001 5.287.375 10.983.364v-.738z"/>
</svg>
